[gd_scene load_steps=3 format=2]

[ext_resource path="res://assets/Spritesheet/colored.png" type="Texture" id=1]
[ext_resource path="res://items/AmmoPack.gd" type="Script" id=2]

[node name="AmmoPack" type="Node2D" groups=[
"AmmoUser",
]]
script = ExtResource( 2 )
charges = 1

[node name="Sprite" type="Sprite" parent="."]
texture = ExtResource( 1 )
region_enabled = true
region_rect = Rect2( 34, 460, 16, 16 )
