[gd_scene load_steps=4 format=2]

[ext_resource path="res://assets/Spritesheet/mapPack_tilesheet_2X.png" type="Texture" id=1]
[ext_resource path="res://items/SupplyBox.gd" type="Script" id=2]

[sub_resource type="RectangleShape2D" id=1]
extents = Vector2( 33.5811, 40.7913 )

[node name="SupplyBox" type="StaticBody2D"]
collision_layer = 9
script = ExtResource( 2 )

[node name="Sprite" type="Sprite" parent="."]
texture = ExtResource( 1 )
vframes = 12
hframes = 17
frame = 127

[node name="CollisionShape2D" type="CollisionShape2D" parent="."]
position = Vector2( 1.07382, 0 )
shape = SubResource( 1 )
